…
# You can chain this result into a dplyr pipeline
dplyr::count(result, cyl, gear)
#> # Source:   SQL [?? x 3]
#> # Database: DuckDB 1.4.3 [unknown@Linux 6.11.0-1018-azure:R 4.5.2/:memory:]
#>     cyl  gear     n
#>   <dbl> <dbl> <dbl>
#> 1     6     5     1
#> 2     8     5     2
#> 3     6     4     4
#> 4     8     3    12
#> 5     6     3     2

# Or collect the entire data frame into local memory
dplyr::collect(result)
#> # A tibble: 21 × 11
#>      mpg   cyl  disp    hp  drat    wt  qsec    vs    am  gear  carb
#>    <dbl> <dbl> <dbl> <dbl> <dbl> <dbl> <dbl> <dbl> <dbl> <dbl> <dbl>
#>  1  21       6  160    110  3.9   2.62  16.5     0     1     4     4
#>  2  21       6  160    110  3.9   2.88  17.0     0     1     4     4
#>  3  21.4     6  258    110  3.08  3.22  19.4     1     0     3     1
#>  4  18.7     8  360    175  3.15  3.44  17.0     0     0     3     2
#>  5  18.1     6  225    105  2.76  3.46  20.2     1     0     3     1
#>  6  14.3     8  360    245  3.21  3.57  15.8     0     0     3     4
#>  7  19.2     6  168.   123  3.92  3.44  18.3     1     0     4     4
#>  8  17.8     6  168.   123  3.92  3.44  18.9     1     0     4     4
#>  9  16.4     8  276.   180  3.07  4.07  17.4     0     0     3     3
#> 10  17.3     8  276.   180  3.07  3.73  17.6     0     0     3     3
#> # ℹ 11 more rows
…
